  [
    {
      "To": "011",
      "From": "016",
      "PriceForMinute": "2.90"
    },
    {
      "To": "011",
      "From": "017",
      "PriceForMinute": "1.70"
    },
    {
      "To": "017",
      "From": "011",
      "PriceForMinute": "2.70"
    },
    {
      "To": "011",
      "From": "018",
      "PriceForMinute": "0.90"
    },
    {
      "To": "018",
      "From": "011",
      "PriceForMinute": "1.90"
    }
  ]

//new PlansRate { To = "011", From = "016", PriceForMinute = 1.90 },
//new PlansRate { To = "011", From = "017", PriceForMinute = 1.70 },
//new PlansRate { To = "011", From = "018", PriceForMinute = 0.90 },
//new PlansRate { To = "016", From = "011", PriceForMinute = 2.90 },
//new PlansRate { To = "016", From = "017", PriceForMinute = 2.70 },
//new PlansRate { To = "016", From = "018", PriceForMinute = 1.90 },
//new PlansRate { To = "017", From = "011", PriceForMinute = 2.70 },
//new PlansRate { To = "017", From = "016", PriceForMinute = 2.50 },
//new PlansRate { To = "017", From = "018", PriceForMinute = 1.70 },
//new PlansRate { To = "018", From = "011", PriceForMinute = 1.90 },
//new PlansRate { To = "018", From = "016", PriceForMinute = 1.70 },
//new PlansRate { To = "018", From = "017", PriceForMinute = 0.90 },